Geocoding with Mapbox in mapboxapi • mapboxapi
…
Let’s try it out with a real-world dataset. We’ll be working with a
dataset of Adult Residential Care facilities in the state of California,
obtained
from the State of California Open Data portal. You can find this
dataset in mapboxapi’s GitHub repository in vignettes/data.
We’ll read in the dataset with readr::read_csv().

library(tidyverse)

ca_care <- read_csv("data/community-care-licensing-adult-residential-facility-locations.csv")

ca_care

## # A tibble: 25,402 × 16
##    `Facility Type`                    `Facility Number` `Facility Name` Licensee
##    <chr>                                          <dbl> <chr>           <chr>   
##  1 Adult Res Facility for Persons wi…         435201914 LIFE SERVICES … LIFE SE…
##  2 Adult Res Facility for Persons wi…         415201928 SAINT FRANCIS … ALBACRU…
##  3 Adult Res Facility for Persons wi…         415201932 ATENAR HOME, I… ATENAR …
##  4 Adult Res Facility for Persons wi…          15201936 CHABLIS HOME    NATIONA…
##  5 Adult Res Facility for Persons wi…          15201935 REGENT HOME     NATIONA…
##  6 Adult Res Facility for Persons wi…         435201962 VAST HORIZONS,… VAST HO…
##  7 Adult Res Facility for Persons wi…         435201963 VAST HORIZONS,… VAST HO…
##  8 Adult Res Facility for Persons wi…         435202005 CA NATIONAL ME… NATIONA…
##  9 Adult Res Facility for Persons wi…         435202006 CA NATIONAL ME… NATIONA…
## 10 Adult Res Facility for Persons wi…         435202007 FLORA HOME      NATIONA…
## # ℹ 25,392 more rows
## # ℹ 12 more variables: `Facility Administrator` <chr>,
## #   `Facility Telephone Number` <chr>, `Facility Address` <chr>,
## #   `Facility City` <chr>, `Facility State` <chr>, `Facility Zip` <chr>,
## #   `Regional Office` <dbl>, `County Name` <chr>, FAC_CAPACITY <dbl>,
## #   `Facility Status` <chr>, `Closed Date` <chr>, `License First Date` <chr>
…
library(janitor)

ventura_care <- read_csv("data/community-care-licensing-adult-residential-facility-locations.csv") |> 
  clean_names() |> 
  filter(facility_status == "Licensed", county_name == "VENTURA")

ventura_care

## # A tibble: 118 × 16
##    facility_type   facility_number facility_name licensee facility_administrator
##    <chr>                     <dbl> <chr>         <chr>    <chr>                 
##  1 Adult Resident…       561701197 IBARRA ADULT… IBARRA,… MARIA S. CASTILLO     
##  2 Adult Resident…       561702356 COTTONWOOD, … CORTES,… FLORO CORTES          
##  3 Adult Resident…       561703268 MOUNTAIN VIE… VENIS C… CACCAM, VENIS 98      
##  4 Adult Resident…       561703272 CACCAM'S RES… VENIS C… VENIS CACCAM          
##  5 Adult Resident…       561703412 CUDAL BOARD … PERFECT… PERFECTO P. CUDAL     
##  6 Adult Resident…       565800397 RMC RESIDENT… CARINO … RICHARD T. CARINO II  
##  7 Adult Resident…       561703776 BARNARD FAMI… IBARRA,… KARLA IBARRA          
##  8 Adult Resident…       561703832 JOSEPHINE'S … CARINO … RICHARD T. CARINO II  
##  9 Adult Resident…       565800005 GEMILAN HOME… CAFUIR,… MELANIE MARIN         
## 10 Adult Resident…       565800010 MOUNTAIN VIE… CACCAM,… ADELINA ANDERSON      
## # ℹ 108 more rows
## # ℹ 11 more variables: facility_telephone_number <chr>, facility_address <chr>,
## #   facility_city <chr>, facility_state <chr>, facility_zip <chr>,
## #   regional_office <dbl>, county_name <chr>, fac_capacity <dbl>,
## #   facility_status <chr>, closed_date <chr>, license_first_date <chr>
…
ventura_care_sf

## Simple feature collection with 118 features and 19 fields
## Geometry type: POINT
## Dimension:     XY
## Bounding box:  xmin: -119.2758 ymin: 34.14295 xmax: -118.659 ymax: 34.44917
## Geodetic CRS:  WGS 84
## # A tibble: 118 × 20
##    facility_type   facility_number facility_name licensee facility_administrator
##  * <chr>                     <dbl> <chr>         <chr>    <chr>                 
##  1 Adult Resident…       561701197 IBARRA ADULT… IBARRA,… MARIA S. CASTILLO     
##  2 Adult Resident…       561702356 COTTONWOOD, … CORTES,… FLORO CORTES          
##  3 Adult Resident…       561703268 MOUNTAIN VIE… VENIS C… CACCAM, VENIS 98      
##  4 Adult Resident…       561703272 CACCAM'S RES… VENIS C… VENIS CACCAM          
##  5 Adult Resident…       561703412 CUDAL BOARD … PERFECT… PERFECTO P. CUDAL     
##  6 Adult Resident…       565800397 RMC RESIDENT… CARINO … RICHARD T. CARINO II  
##  7 Adult Resident…       561703776 BARNARD FAMI… IBARRA,… KARLA IBARRA          
##  8 Adult Resident…       561703832 JOSEPHINE'S … CARINO … RICHARD T. CARINO II  
##  9 Adult Resident…       565800005 GEMILAN HOME… CAFUIR,… MELANIE MARIN         
## 10 Adult Resident…       565800010 MOUNTAIN VIE… CACCAM,… ADELINA ANDERSON      
## # ℹ 108 more rows
## # ℹ 15 more variables: facility_telephone_number <chr>, facility_address <chr>,
## #   facility_city <chr>, facility_state <chr>, facility_zip <chr>,
## #   regional_office <dbl>, county_name <chr>, fac_capacity <dbl>,
## #   facility_status <chr>, closed_date <chr>, license_first_date <chr>,
## #   matched_address <chr>, accuracy <chr>, confidence <chr>,
## #   geometry <POINT [°]>
…
